cmsc320 final project
…
The problem we are trying to identify here is that what is the most significant factor causing people in various age range to commit suicide.

Also there are some rumors like teenagers are more likely to commit suicide. Here we have this awesome data set we can then do some analysis to test if some of the stereotypes are true.

Collecting the data

Dataset can be downloaded from: https://www.kaggle.com/russellyates88/suicide-rates-overview-1985-to-2016/downloads/suicide-rates-overview-1985-to-2016.zip/1

We put the downloaded file in the current directory and read it with read_csv. Lets take a look at the actual dataset and its attributes first and see how we can approach to the problem we are trying to solve.

sr_data <- read_csv("suicide_rate.csv")
sr_data

## # A tibble: 27,820 x 12
##    country  year sex   age   suicides_no population `suicides/100k ~
##    <chr>   <dbl> <chr> <chr>       <dbl>      <dbl>            <dbl>
##  1 Albania  1987 male  15-2~          21     312900             6.71
##  2 Albania  1987 male  35-5~          16     308000             5.19
##  3 Albania  1987 fema~ 15-2~          14     289700             4.83
##  4 Albania  1987 male  75+ ~           1      21800             4.59
##  5 Albania  1987 male  25-3~           9     274300             3.28
##  6 Albania  1987 fema~ 75+ ~           1      35600             2.81
##  7 Albania  1987 fema~ 35-5~           6     278800             2.15
##  8 Albania  1987 fema~ 25-3~           4     257200             1.56
##  9 Albania  1987 male  55-7~           1     137500             0.73
## 10 Albania  1987 fema~ 5-14~           0     311000             0   
## # ... with 27,810 more rows, and 5 more variables: `country-year` <chr>,
## #   `HDI for year` <dbl>, `gdp_for_year ($)` <dbl>, `gdp_per_capita
## #   ($)` <dbl>, generation <chr>

After gathering the data we can start doing something more specific. For example if we want to select a colum from this data set we can do something like this:

sr_data %>%
  select("suicides_no","year")

## # A tibble: 27,820 x 2
##    suicides_no  year
##          <dbl> <dbl>
##  1          21  1987
##  2          16  1987
##  3          14  1987
##  4           1  1987
##  5           9  1987
##  6           1  1987
##  7           6  1987
##  8           4  1987
##  9           1  1987
## 10           0  1987
## # ... with 27,810 more rows

Doing basic analysis on data

After including the dataset, we can start doing some basic analysis by manipulating the dataframe with several basic functions. For example if we want to see how many people in the US has commited suicide in the past, we can do something like this:

total_no_per_year <- sr_data %>%
  filter(country == "United States") %>%
  group_by(year) %>%
  summarize(total_number = sum(suicides_no))
total_no_per_year

## # A tibble: 31 x 2
##     year total_number
##    <dbl>        <dbl>
##  1  1985        29446
##  2  1986        30892
##  3  1987        30783
##  4  1988        30388
##  5  1989        30218
##  6  1990        30895
##  7  1991        30790
##  8  1992        30471
##  9  1993        31084
## 10  1994        31123
## # ... with 21 more rows
…
The model is good enough since most of residues are centered at 0.

We can see that total number of suicide poplation is increasing at a rate of 1522 people per year. This is really daunting. We have to figure out exactly which factor is affecting the trend. First we take a look at how is the factor country affecting the trend.

Testing relationship between country and suicide no

To do this problem we have to include country in our dataframe. Also we can no longer use the total number of population since population between countries vary be alot.

df_with_country <- sr_data %>%
  group_by(year,country) %>%
  summarize(mean_no = mean(`suicides/100k pop`)) %>%
  arrange(desc(mean_no))
df_with_country

## # A tibble: 2,321 x 3
## # Groups:   year [32]
##     year country            mean_no
##    <dbl> <chr>                <dbl>
##  1  1995 Lithuania             53.3
##  2  1996 Lithuania             49.6
##  3  1991 Hungary               47.9
##  4  2000 Lithuania             47.6
##  5  1992 Hungary               47.5
##  6  2001 Lithuania             47.4
##  7  1994 Russian Federation    47.3
##  8  1998 Lithuania             47.2
##  9  1997 Lithuania             47.1
## 10  1999 Lithuania             46.8
## # ... with 2,311 more rows
…
After modeling the dataset we can start doing machine learning analysis. This time we are useing 2 factors so we are fitting our data in a multiple linear regressing model.

fit_wit_country <- lm(df_with_country$mean_no ~ df_with_country$year*df_with_country$country)
tidy(fit_wit_country)

## # A tibble: 198 x 5
##    term                               estimate std.error statistic  p.value
##    <chr>                                 <dbl>     <dbl>     <dbl>    <dbl>
##  1 (Intercept)                        -3.36e+1  160.       -0.210  8.34e- 1
##  2 df_with_country$year                1.86e-2    0.0802    0.232  8.17e- 1
##  3 df_with_country$countryAntigua a~   7.80e+0  193.        0.0403 9.68e- 1
##  4 df_with_country$countryArgentina    2.03e+2  190.        1.07   2.87e- 1
##  5 df_with_country$countryArmenia      7.09e+1  204.        0.347  7.29e- 1
##  6 df_with_country$countryAruba        2.13e+3  347.        6.12   1.12e- 9
##  7 df_with_country$countryAustralia    3.18e+2  191.        1.67   9.52e- 2
##  8 df_with_country$countryAustria      1.22e+3  188.        6.50   1.02e-10
##  9 df_with_country$countryAzerbaijan   1.04e+2  308.        0.337  7.36e- 1
## 10 df_with_country$countryBahamas     -3.75e+0  214.       -0.0175 9.86e- 1
## # ... with 188 more rows
…
From this dataframe we can see that which country is contributing how much to the trend. We can arrange this df

tidy(fit_wit_country) %>%
  slice(-2,-1) %>%
  arrange(desc(estimate))

## # A tibble: 196 x 5
##    term                               estimate std.error statistic  p.value
##    <chr>                                 <dbl>     <dbl>     <dbl>    <dbl>
##  1 df_with_country$countryKiribati       3107.      511.      6.08 1.43e- 9
##  2 df_with_country$countryEstonia        2779.      244.     11.4  3.75e-29
##  3 df_with_country$countryLatvia         2389.      244.      9.78 4.06e-22
##  4 df_with_country$countryHungary        2225.      209.     10.7  7.16e-26
##  5 df_with_country$countryAruba          2126.      347.      6.12 1.12e- 9
##  6 df_with_country$countryLithuania      2002.      235.      8.52 3.04e-17
##  7 df_with_country$countrySri Lanka      1846.      292.      6.32 3.22e-10
##  8 df_with_country$countrySlovenia       1634.      244.      6.69 2.86e-11
##  9 df_with_country$countryCuba           1557.      220.      7.07 2.04e-12
## 10 df_with_country$countryRussian Fe~    1523.      204.      7.46 1.24e-13
## # ... with 186 more rows
…
Since we found out that county is a big factor affecting the central tendency, it is reasonalbe to suspect that gdp might also be a factor. Therefore we can do a linear regression model to analyze how is gdp contributing to the average suicide rate. Lets first model the data set. We want a model that contains countries, average gdp and average suicide rate.

country_mean_suiciderate<-df_with_country %>%
  group_by(country) %>%
  summarize("mean_suicide_rate" = mean(mean_no))

country_mean_gdp <- sr_data %>%
  group_by(country) %>%
  summarize(mean_gdp = mean(`gdp_for_year ($)`))

suicide_rate_gdp<-country_mean_gdp %>%
  full_join(country_mean_suiciderate, by="country")
suicide_rate_gdp

## # A tibble: 101 x 3
##    country                  mean_gdp mean_suicide_rate
##    <chr>                       <dbl>             <dbl>
##  1 Albania               5211661212.             3.50 
##  2 Antigua and Barbuda    803545217.             0.553
##  3 Argentina           274256497625.            10.5  
##  4 Armenia               5386592178.             3.28 
##  5 Aruba                 2196223464.             9.50 
##  6 Australia           632750138056.            13.0  
##  7 Austria             266016249974.            23.7  
##  8 Azerbaijan            7210687312.             1.86 
##  9 Bahamas               7613828252.             1.25 
## 10 Bahrain              16086468389.             1.85 
## # ... with 91 more rows
…
From the graph we can see that countries with lower gdp does have more incidents of people commiting suicides. However besed on the linear regression model we can see that gdp acutually contribute little to the suicide rate of a country. This means that suicides rate acutally does not really depend on countries gdp.

Testing how is age affecting suicide rate

Another steretype is that teenagers(15-24) are more likely to commit suicides. However some website(https://afsp.org/about-suicide/suicide-statistics/) claims that teenagers are actually less likely to commit suicide. Here we have the awesome data, lets just test on our dataset and analyze is the stereotype true or is this website true. After doing some analysis on countries, now we can do the same on age and see how is age effecting the totalnumber of suicides.

Again we first have to model the dataframe from the original data frame:

df_with_age <- sr_data %>%
  group_by(year,age) %>%
  summarize(sum_no = sum(suicides_no)) %>%
  arrange(desc(sum_no))
df_with_age

## # A tibble: 191 x 3
## # Groups:   year [32]
##     year age         sum_no
##    <dbl> <chr>        <dbl>
##  1  2003 35-54 years  98693
##  2  2002 35-54 years  98675
##  3  2000 35-54 years  97814
##  4  2001 35-54 years  96998
##  5  1999 35-54 years  96223
##  6  2004 35-54 years  92531
##  7  1998 35-54 years  91627
##  8  1996 35-54 years  91280
##  9  2009 35-54 years  90390
## 10  1995 35-54 years  89752
## # ... with 181 more rows
…
